/*********************************************************************
Initial conditions from MADX model of PSB extraction to BT lines
*********************************************************************/

betx0              =       1.0925141907e+01 ;
bety0              =       2.1678964505e+01 ;
alfx0              =      -2.1637079236e-01 ;
alfy0              =       2.7382380239e-02 ;
dx0                =       2.5527360961e+00 ;
dy0                =       5.8639734799e-02 ;
dpx0               =       5.9212181396e-03 ;
dpy0               =      -5.4214151245e-04 ;
x0                 =      -7.1292578879e-03 ;
px0                =       1.6518129605e-04 ;
