/*********************************************************************
Initial conditions from MADX model of PSB extraction to BT lines
*********************************************************************/

betx0              =       3.0858525994e+01 ;
bety0              =       4.0693233969e+01 ;
alfx0              =      -2.7701260744e+00 ;
alfy0              =      -3.1703208795e+00 ;
dx0                =      -1.5256500571e+00 ;
dy0                =       8.2230485491e-01 ;
dpx0               =       1.4631323468e-01 ;
dpy0               =       6.8076592605e-02 ;
x0                 =       9.7199338064e-03 ;
px0                =       5.8354266737e-04 ;
