!  twiss parameters at beginning of TT2 for Pb ions @ 26 GeV/c
!
!
! Considering Twiss parameters change due to back-scattering at stripper
! New optics 10/10/2007 (G.Arduini, E.Benedetto, M.Martini)
! based on measurements of 20th Sept '07
!

BETX0  := 32.738; 
ALFX0  := -3.074;  
BETY0  := 10.561;  
ALFY0  :=  0.706; 
DX0    :=  3.097; 
DPX0   :=  0.250; 
DY0    :=  0.301; 
DPY0   :=  0.018; 
MUX0   :=  0.000000000000;
MUY0   :=  0.000000000000;
X0     :=  0.000000000000;
PX0    :=  0.000000000000;
Y0     :=  0.000000000000;
PY0    :=  0.000000000000;
T0     :=  0.000000000000;
PT0    :=  0.000000000000;


return;

