/*********************************************************************
Initial conditions from MADX model of PSB extraction to BT lines
*********************************************************************/

betx0              =       6.0724490591e+01 ;
bety0              =       5.8258616291e+01 ;
alfx0              =      -3.3711225829e+00 ;
alfy0              =      -6.4493674914e+00 ;
dx0                =      -1.4446298216e+01 ;
dy0                =      -3.2167594714e-01 ;
dpx0               =      -7.8192155575e-01 ;
dpy0               =      -5.1090594852e-02 ;
x0                 =       1.7561775742e-02 ;
px0                =       1.0710984619e-03 ;
