/*********************************************************************
Initial conditions from MADX model of PSB extraction to BT lines
*********************************************************************/

betx0              =       5.6370244871e+00 ;
bety0              =       4.2443955783e+00 ;
alfx0              =      -6.0256917612e-02 ;
alfy0              =      -8.2479944651e-02 ;
dx0                =      -1.4977988299e+00 ;
dy0                =       0.0000000000e+00 ;
dpx0               =       4.0869929258e-02 ;
dpy0               =       0.0000000000e+00 ;
x0                 =       5.6064027106e-03 ;
px0                =      -4.4706578640e-05 ;
