/*********************************************************************
Initial conditions from MADX model of PSB extraction to BT lines
*********************************************************************/

betx0              =       5.9468017153e+00 ;
bety0              =       4.6202591129e+00 ;
alfx0              =       2.3604055801e-01 ;
alfy0              =       3.1386672427e-01 ;
dx0                =      -1.5119124808e+00 ;
dy0                =      -0.0000000000e+00 ;
dpx0               =       2.0886083262e-03 ;
dpy0               =      -0.0000000000e+00 ;
x0                 =      -1.8940946302e-05 ;
px0                =      -1.8242436784e-05 ;
