/*********************************************************************
Initial conditions from MADX model of PSB extraction to BT lines
*********************************************************************/

betx0              =       1.0998985832e+01 ;
bety0              =       2.1711862843e+01 ;
alfx0              =       6.1783656576e-01 ;
alfy0              =       2.0479344974e+00 ;
dx0                =       1.3596138350e+00 ;
dy0                =       6.9325620901e-01 ;
dpx0               =       7.5309818856e-02 ;
dpy0               =      -4.7244275634e-02 ;
x0                 =       0.0000000000e+00 ;
px0                =       0.0000000000e+00 ;
