/*********************************************************************************
Initial conditions for LEIR extraction
*********************************************************************************/

betx0              =       4.9992039200e+00 ;
bety0              =       5.0003808000e+00 ;
alfx0              =      -0.0000000000e+00 ;
alfy0              =      -0.0000000000e+00 ;
dx0                =       1.4702300000e-03 ;
dy0                =       0.0000000000e+00 ;
dpx0               =      -0.0000000000e+00 ;
dpy0               =       0.0000000000e+00 ;
