/*********************************************************************
Initial conditions from MADX model of PSB extraction to BT lines
*********************************************************************/

betx0              =       3.6446160067e+01 ;
bety0              =       4.0343079003e+01 ;
alfx0              =      -3.2707592083e+00 ;
alfy0              =      -3.1243658788e+00 ;
dx0                =      -1.6162438633e+00 ;
dy0                =       2.1667010097e-01 ;
dpx0               =       1.3073985324e-01 ;
dpy0               =      -2.2984657694e-03 ;
x0                 =       0.0000000000e+00 ;
px0                =       0.0000000000e+00 ;
