/*********************************************************************
Initial conditions from MADX model of PSB extraction to BT lines
*********************************************************************/

betx0              =       2.5907702656e+01 ;
bety0              =       5.2851053680e+00 ;
alfx0              =      -9.1455709228e+00 ;
alfy0              =      -1.2214039995e+00 ;
dx0                =       4.3508366910e+00 ;
dy0                =       6.6730479865e-03 ;
dpx0               =       1.7294324014e+00 ;
dpy0               =       5.7626796927e-03 ;
x0                 =       0.0000000000e+00 ;
px0                =       0.0000000000e+00 ;
