/*********************************************************************
Initial conditions from MADX model of ELENA extraction to LNE00
*********************************************************************/

betx0              =        4.636782612 ;
bety0              =        4.505174616 ;
alfx0              =         1.27976562 ;
alfy0              =        1.052880044 ;
dx0                =        94.10232702 ;
dy0                =                  0 ;
dpx0               =    7.208397155e-14 ;
dpy0               =                 -0 ;
x0                 =                  0 ;
px0                =                  0 ;
